{
	
	"name": "Digitrans Navigation Speed Optimizer",
	"vnfPackagePath": "__Link__",
	"accessLevel": "RESTRICTED",
	"version": "1.0",
	"type": "SERVICE",
       
	"specLevel": "VERTICAL_SPECIFIC",
	"testbed": "ANTWERP",
	"useCase": "UC1",
	"configurableParameters": {
	},
	"description": "NetApp developed to help vessel operators in their daily navigation tasks by providing them with an optimal navigation speed so that they arrive just in time.",

	"atomicComponents": [{
			"componentId": "NavigationSpeedOptimizer",
			"endPointsIds": [
				"navigationSpeedOptimizer"
			],
			"placement": "CORE"
		}
	],
	"applicationMetrics": [{
		"metricId": "parallel_optimizations_count",
		"metricCollectionType": "GAUGE",
		"interval": "1",
		"unit": "number of current optimizations performed by the NetApp",
		"name": "Object count",
		"metricGraphType": "LINE"

	}],
	"infrastructureMetrics": [{
			"metricId": "memory_usage",
			"metricCollectionType": "GAUGE",
			"type": "MEMORY_USAGE",
			"interval": "10",
			"unit": "seconds",
			"name": "memory_usage",
			"metricGraphType": "LINE",
			"componentIds": ["NavigationSpeedOptimizer"]

		}, {
			"metricId": "disk_usage",
			"metricCollectionType": "GAUGE",
			"type": "DISK_USAGE",
			"interval": "10",
			"unit": "seconds",
			"name": "memory_usage",
			"metricGraphType": "LINE",
			"componentIds": ["NavigationSpeedOptimizer"]
		},{
			"metricId": "disk_usage",
			"metricCollectionType": "GAUGE",
			"type": "DISK_USAGE",
			"interval": "10",
			"unit": "seconds",
			"name": "memory_usage",
			"metricGraphType": "LINE",
			"componentIds": ["NavigationSpeedOptimizer"]

		}

	],
	"endPoints": [
	{

			"endPointId": "navigationSpeedOptimizer",
			"type": "EXTERNAL",
			"management": true,
			"mobileConnection": false
		}
	],

	"providedInterfaceSpec": [{
			"interfaceServiceSpecId": "TerminalPlanning",
			"version": "1.0",
			"endpointIds": [
				"navigationSpeedOptimizer"
			],
			"name": "API used to communicate with the Terminal Planner (NxtPort PortCall+)",
			"commType": "REQUEST_RESPONSE",
			"dataFormat": "JSON",
			"protocol": "HTTP",
			"attachedSpecifications": [{
				"format": "DOCUMENTATION",
				"file": "softwaredoc/TerminalPlanningAPIServerDocs.json"
			}]
		},{
			"interfaceServiceSpecId": "InlandNavigation",
			"version": "1.0",
			"endpointIds": [
				"navigationSpeedOptimizer"
			],
			"name": "Used to communicate with the Inland Navigation API (VisuRIS)",
			"commType": "REQUEST_RESPONSE",
			"dataFormat": "JSON",
			"protocol": "HTTP",
			"attachedSpecifications": [{
				"format": "DOCUMENTATION",
				"file": "softwaredoc/InlandNavigationAPIServerDocs.json"
			}]
		},{
			"interfaceServiceSpecId": "SpeedOptimizerClientGUI",
			"version": "1.0",
			"endpointIds": [
				"navigationSpeedOptimizer"
			],
			"name": "Client application to access the optimizer",
			"commType": "REQUEST_RESPONSE",
			"dataFormat": "OTHER",
			"protocol": "HTTP",
			"attachedSpecifications": [

			]
		},{
			"interfaceServiceSpecId": "DashBoardMgmtAPI",
			"version": "1.0",
			"endpointIds": [
				"navigationSpeedOptimizer"
			],
			"name": "Management interface for the Navigation Speed Optimizer",
			"commType": "REQUEST_RESPONSE",
			"dataFormat": "JSON",
			"protocol": "HTTP",
			"attachedSpecifications": [{
				"format": "OPEN_API",
				"file": "apis/speedOptimizerServerMgmtInterface.json"
			}]
		}
	],
	"requiredEquipments": [
	],
	"required5GCoreServices": [
	],
	"softwareLicenses": [{
		"softwareLicenseId": "digitransLicense",
		"openLicense": false,
		"type": "APPLICATION_PROPRIETARY",
		"licenseFile": "licenses/digitransLicense.txt"
	}]
}
