{
   "name":"VA4 IoT Management Platform",
   "description":"NetApp for collection of IoT data and actuators control for heterogeneous and configurable devices, with mechanisms for unified data modelling, monitoring, and reporting. ",
   "version":"1.0",
   "vnfPackagePath":"http://nextworks.it/symphony",
   "applicationMetrics":[
      {
         "metricId":"alarm_rate",
         "name":"Alarm Rate",
         "metricCollectionType":"GAUGE",
         "metricGraphType":"LINE",
         "unit":"alarms per second",
         "interval":"10"
      }
   ],
   "infrastructureMetrics":[
      {
         "type":"RELIABILITY",
         "metricId":"reliability",
         "name":"reliability",
         "metricCollectionType":"GAUGE",
         "unit":"percentage",
         "interval":"10",
         "metricGraphType":"LINE",
         "componentIds":[
            
         ]
      },
      {
         "type":"LATENCY_USERPLANE_RTT",
         "metricId":"latency",
         "name":"latency",
         "metricCollectionType":"GAUGE",
         "unit":"seconds",
         "interval":"10",
         "metricGraphType":"LINE",
         "componentIds":[
            
         ]
      },
      {
         "type":"USER_DATA_RATE_UPLINK",
         "metricId":"uplink_datarate",
         "name":"uplink_datarate",
         "metricCollectionType":"GAUGE",
         "unit":"seconds",
         "interval":"10",
         "metricGraphType":"LINE",
         "componentIds":[
            
         ]
      },
      {
         "type":"USER_DATA_RATE_DOWNLINK",
         "metricId":"downlink_datarate",
         "name":"uplink_datarate",
         "metricCollectionType":"GAUGE",
         "unit":"seconds",
         "interval":"10",
         "metricGraphType":"LINE",
         "componentIds":[
            
         ]
      },
      {
         "type":"MEMORY_USAGE",
         "metricId":"memory_usage",
         "name":"memory_usage",
         "metricCollectionType":"GAUGE",
         "unit":"seconds",
         "interval":"10",
         "metricGraphType":"LINE",
         "componentIds":[
            "IoTAlertAndEventManager",
            "MessageBroker"
         ]
      },
      {
         "type":"DISK_USAGE",
         "metricId":"disk_usage",
         "name":"memory_usage",
         "metricCollectionType":"GAUGE",
         "unit":"seconds",
         "interval":"10",
         "metricGraphType":"LINE",
         "componentIds":[
            "IoTAlertAndEventManager",
            "MessageBroker",
            "DatastoreAndDashboard"
         ]
      }
   ],
   "atomicComponents":[
      {
         "componentId":"IoTAlertAndEventManager",
         "minInstances":0,
         "maxInstances":0,
         "endPointsIds":[
            "alertEventManagerCore"
         ],
         "placement":"CORE"
      },
      {
         "componentId":"IoTSupervisor",
         "minInstances":0,
         "maxInstances":0,
         "endPointsIds":[
            "IotSupervisorData"
         ],
         "placement":"CORE"
      },
      {
         "componentId":"MessageBroker",
         "minInstances":0,
         "maxInstances":0,
         "endPointsIds":[
            "messageBrokerCore"
         ],
         "placement":"CORE"
      },
      {
         "componentId":"DatastoreAndDashboard",
         "minInstances":0,
         "maxInstances":0,
         "endPointsIds":[
            "datastoreDashboardCore",
            "datastoreDashboardQuery"
         ],
         "placement":"CORE"
      },
      {
         "componentId":"RestController",
         "minInstances":0,
         "maxInstances":0,
         "endPointsIds":[
            "RestControllerMgmt"
         ],
         "placement":"CORE"
      }
   ],
   "type":"SERVICE",
   "specLevel":"VERTICAL_AGNOSTIC",
   "accessLevel":"PUBLIC",
   "configurableParameters":{
      "dashboard_port":"PORT OF THE DASHBOARD"
   },
   "serviceParameters":{
      
   },
   "providedInterfaceSpec":[
      {
         "interfaceServiceSpecId":"IoTManagementPlatformMgmt",
         "name":"IoTManagementPlatformMgmt",
         "version":"1.0",
         "protocol":"HTTP",
         "commType":"REQUEST_RESPONSE",
         "dataFormat":"JSON",
         "attachedSpecifications":[
            {
               "file":"softwaredoc/IoTManagementPlatformMgmtInterface.json",
               "format":"OPEN_API"
            }
         ],
         "endpointIds":[
            "RestControllerMgmt"
         ],
         "protocolParams":{
            
         }
      },
      {
         "interfaceServiceSpecId":"IoTDeviceDataProvider",
         "name":"IoTDeviceDataProvider",
         "version":"1.0",
         "protocol":"MQTT",
         "commType":"SUBSCRIBE_NOTIFY",
         "dataFormat":"JSON",
         "attachedSpecifications":[
            {
               "file":"apis/IoTManagementPlatformMessages.txt",
               "format":"DOCUMENTATION"
            }
         ],
         "role":"PROVIDER",
         "endpointIds":[
            "IotSupervisorData"
         ],
         "protocolParams":{
            
         }
      },
      {
         "interfaceServiceSpecId":"SymphonyDatastoreDashboard",
         "name":"SymphonyDatastoreDashboard",
         "version":"1.0",
         "protocol":"HTTP",
         "commType":"REQUEST_RESPONSE",
         "dataFormat":"JSON",
         "attachedSpecifications":[
            {
               "file":"softwaredoc/symphonDatastoreOpenAPI.json",
               "format":"OPEN_API"
            }
         ],
         "endpointIds":[
            "dashboardDatastoreQuery"
         ],
         "protocolParams":{
            
         }
      }
   ],
   "requiredInterfaceSpec":[
      
   ],
   "requiredEquipments":[
      {
         "requiredEquipmentId":"iotSensor",
         "type":"SENSOR",
         "accessLevel":"READ",
         "location":"AREA_ID",
         "description":"IoT_Supervisor",
         "interfaceProtocol":"MQTT",
         "mandatory":true,
         "exposedAccessLevel":"PRIVATE"
      }
   ],
   "useCase":"test",
   "testbed":"ATHENS",
   "softwareLicenses":[
      {
         "softwareLicenseId":"symphonyLicense",
         "openLicense":false,
         "licenseFile":"licenses/symphonyLicense.txt",
         "type":"APPLICATION_PROPRIETARY",
         "componentIds":[
            
         ]
      }
   ],
   "connectivityServices":[
      {
         "connectivityServiceId":"IoTManagementPlatformInternal",
         "endPointIds":[
            "messageBrokerCore",
            "datastoreDashboardCore",
            "alertEventManagerCore"
         ],
         "external":false,
         "management":false,
         "connectivityProperties":[
            
         ]
      }
   ],
   "endPoints":[
      {
         "endPointId":"alertEventManager",
         "type":"INTERNAL",
         "management":true,
         "mobileConnection":false,
         "sliceProfile":[
            
         ]
      },
      {
         "endPointId":"datastoreDashboardQuery",
         "type":"EXTERNAL",
         "management":true,
         "mobileConnection":false,
         "sliceProfile":[
            
         ]
      },
      {
         "endPointId":"messageBrokerCore",
         "type":"INTERNAL",
         "management":false,
         "mobileConnection":false,
         "sliceProfile":[
            
         ]
      },
      {
         "endPointId":"IotSupervisorData",
         "type":"EXTERNAL",
         "management":true,
         "mobileConnection":true,
         "sliceProfile":[
            {
               "profileParams":{
                  "availability":99,
                  "latency":60
               },
               "sliceProfileType":"URLLC"
            }
         ],
         "radioAccessTechnology":"FIVE_G_NSA",
         "coverageArea":"AREA_ID"
      }
   ],
   "testCases":[
      
   ],
   "required5GCoreServices":[
      
   ]
}
